Trump Tweet Word Clouds | Robert W. Walker
…
bigrams_separated <- DJT2G %>%
  separate(bigram, c("word1", "word2"), sep = " ")

bigrams_filtered <- bigrams_separated %>%
  filter(!word1 %in% stop_words$word) %>%
  filter(!word2 %in% stop_words$word)

# new bigram counts:
bigram_counts <- bigrams_filtered %>% 
  count(word1, word2, sort = TRUE)

bigram_counts

## # A tibble: 10,514 x 3
##    word1   word2           n
##    <chr>   <chr>       <int>
##  1 fake    news          160
##  2 witch   hunt          128
##  3 north   korea          84
##  4 white   house          71
##  5 news    media          56
##  6 total   endorsement    49
##  7 law     enforcement    47
##  8 crooked hillary        43
##  9 supreme court          39
## 10 border  security       38
## # ... with 10,504 more rows
…
