…
```r
DUCBT <- DiscriminationUCB %>% group_by(M.F,Dept,Admit) %>% summarise(count = n()) %>% ungroup()
DUCBT
```

```
## # A tibble: 24 x 4
##    M.F    Dept  Admit count
##    <fct>  <fct> <fct> <int>
##  1 Female A     No       19
##  2 Female A     Yes      89
##  3 Female B     No        8
##  4 Female B     Yes      17
##  5 Female C     No      391
##  6 Female C     Yes     202
##  7 Female D     No      244
##  8 Female D     Yes     131
##  9 Female E     No      299
## 10 Female E     Yes      94
## # … with 14 more rows
```
…
