Scraping EPL Salary Data | Robert W. Walker
…
## # A tibble: 4 x 3
##   Position Mean.Base.Salary     sdBS
##   <fct>               <dbl>    <dbl>
## 1 D                2373070. 1567603.
## 2 F                3270747. 2511928.
## 3 GK               2132456. 1871190.
## 4 M                2874411. 2487494.

EPL.Result %>% group_by(Position,Team) %>% summarise(Mean.Base.Salary=mean(Base.Num, na.rm=TRUE),sdBS=sd(Base.Num, na.rm = TRUE))

## # A tibble: 80 x 4
## # Groups:   Position [?]
##    Position Team                 Mean.Base.Salary     sdBS
##    <fct>    <fct>                           <dbl>    <dbl>
##  1 D        AFC Bournemouth              1586000.  447321.
##  2 D        Arsenal                      4044444. 1376473.
##  3 D        Brighton Hove Albion         1289600.  337711.
##  4 D        Burnley                      1255429.  262465.
##  5 D        Chelsea                      3307200. 2018898.
##  6 D        Crystal Palace               2392000. 1231643.
##  7 D        Everton                      2453455. 1385547.
##  8 D        Huddersfield Town             994500.  407972.
##  9 D        Leicester City               1999111.  914118.
## 10 D        Liverpool                    3120000. 1742000.
## # ... with 70 more rows
…
