Scraping the NFL Salary Cap Data with Python and R | Robert W. Walker
…
Sal.Data %>% group_by(Team) %>% summarise(Total.Base.Salary=sum(Base.Salary))

## # A tibble: 32 x 2
##    Team               Total.Base.Salary
##    <chr>                          <dbl>
##  1 Arizona Cardinals         105149569.
##  2 Atlanta Falcons           133402353.
##  3 Baltimore Ravens          111906351.
##  4 Buffalo Bills              98227460.
##  5 Carolina Panthers         110158355.
##  6 Chicago Bears              84498180.
##  7 Cincinnati Bengals        134855807.
##  8 Cleveland Browns          122139767.
##  9 Dallas Cowboys            127547113.
## 10 Denver Broncos            138542444.
## # ... with 22 more rows
…
