…
To actually summarize the data in an appropriate fashion, we will use dplyr and summarise after grouping the data by country.

Sum.Table <- SumHes %>%
              group_by(country) %>%
              summarise(mean.gdp=mean(gdp),sd.w.gdp=sd(gdp), mean.pop=mean(pop), sd.w.pop=sd(pop), mean.sr=mean(sr), sd.w.sr=sd(sr))
Sum.Table

## # A tibble: 125 x 7
##           country  mean.gdp  sd.w.gdp   mean.pop   sd.w.pop   mean.sr
##            <fctr>     <dbl>     <dbl>      <dbl>      <dbl>     <dbl>
##  1        ALGERIA 2143.0385 551.36402 15346.5769 3430.01994 21.811538
##  2         ANGOLA  904.4615 209.14573  6456.6538 1160.09175  3.638462
##  3          BENIN 1094.1538  55.27654  2904.7308  596.99464  6.492308
##  4       BOTSWANA 1198.6923 576.04470   722.3077  183.67379 19.765385
##  5   BURKINA FASO  425.8077  42.87565  5997.0769 1023.43984  6.880769
##  6        BURUNDI  471.1154  63.99645  3637.4615  541.38646  4.403846
##  7       CAMEROON  917.8077 257.73491  7230.4615 1457.02143  7.776923
##  8 CAPE VERDE IS.  631.1923 198.28263   264.6923   34.50422 23.603846
##  9 CENTRAL AFR.R.  697.0385  45.59954  2016.3077  307.93113  6.803846
## 10           CHAD  623.6538 146.39233  3909.3462  590.55811  2.084615
## # ... with 115 more rows, and 1 more variables: sd.w.sr <dbl>
…
