…
## # A tibble: 4 x 3
##   Position Mean.Base.Salary  sdBS
##   <fct>               <dbl> <dbl>
## 1 D                    26.2  3.34
## 2 F                    25.6  3.29
## 3 GK                   28.4  4.28
## 4 M                    25.2  5.38

EPL.Result %>% group_by(Position,Team) %>% summarise(Mean.Base.Salary=mean(Base.Num, na.rm=TRUE),sdBS=sd(Base.Num, na.rm = TRUE))

## # A tibble: 80 x 4
## # Groups:   Position [4]
##    Position Team                                     Mean.Base.Salary  sdBS
##    <fct>    <fct>                                               <dbl> <dbl>
##  1 D        Https:www.spotrac.comeplAFC Bournemouth              26.4  3.02
##  2 D        Https:www.spotrac.comeplarsenal                      26    3.71
##  3 D        Https:www.spotrac.comeplbrighton Hove A…             27.9  3.13
##  4 D        Https:www.spotrac.comeplburnley                      27.2  1.72
##  5 D        Https:www.spotrac.comeplcardiff City                 29.4  3.26
##  6 D        Https:www.spotrac.comeplchelsea                      24.9  2.47
##  7 D        Https:www.spotrac.comeplcrystal Palace               26.9  3.69
##  8 D        Https:www.spotrac.comepleverton                      24.1  3.45
##  9 D        Https:www.spotrac.comeplfulham                       27.7  2.66
## 10 D        Https:www.spotrac.comeplhuddersfield To…             26.8  2.55
## # … with 70 more rows
…
