…
Who leads longest?

Archigos %>% mutate(Duration = difftime(enddate, startdate, units="weeks")) %>% select(leader,Duration) %>% arrange(desc(Duration)) %>% mutate(DurationInYears = Duration / 52)

## # A tibble: 3,409 x 3
##    leader                      Duration       DurationInYears
##    <chr>                       <time>         <time>         
##  1 Francis Joseph I            3546.429 weeks 68.20056 weeks 
##  2 Nikola I Petrovic-Njegos    2944.286 weeks 56.62089 weeks 
##  3 George I                    2607.144 weeks 50.13738 weeks 
##  4 Pedro II                    2573.144 weeks 49.48353 weeks 
##  5 Castro                      2564.286 weeks 49.31319 weeks 
##  6 Carol I                     2524.572 weeks 48.54946 weeks 
##  7 Hassanal Bolkiah            2517.149 weeks 48.40671 weeks 
##  8 Nasir Ad-Din                2485.286 weeks 47.79397 weeks 
##  9 Tz'u Hsi                    2464.429 weeks 47.39287 weeks 
## 10 Hussein Ibn Talal El-Hashim 2425.863 weeks 46.65121 weeks 
## # … with 3,399 more rows
…
