Alluvial Plots | Robert W. Walker
…
##    M.F Admit Dept
## 1 Male   Yes    A
## 2 Male   Yes    A
## 3 Male   Yes    A
## 4 Male   Yes    A
## 5 Male   Yes    A
## 6 Male   Yes    A

To put this data in a table, using the %>% pipe operator, we will pass the tidy data, group it by the elements of the alluvial, and then generate the counts.

DUCBT <- DiscriminationUCB %>% group_by(M.F,Dept,Admit) %>% summarise(count = n()) %>% ungroup()
DUCBT

## # A tibble: 24 x 4
##    M.F    Dept  Admit count
##    <fct>  <fct> <fct> <int>
##  1 Female A     No       19
##  2 Female A     Yes      89
##  3 Female B     No        8
##  4 Female B     Yes      17
##  5 Female C     No      391
##  6 Female C     Yes     202
##  7 Female D     No      244
##  8 Female D     Yes     131
##  9 Female E     No      299
## 10 Female E     Yes      94
## # … with 14 more rows
…
Now for one better, we can combine variables. I will use the titanic data and combine Age and Sex into a new variable people. THey will now flow through Class to Survival starting with four types of people. I recently discovered Beyonce palettes; I will use Beyonce 56 for this alluvial.

library(beyonce)
TDF2 <- TDF %>% mutate(People = Sex:Age)
TDF2 %>% group_by(People,Class,Survived) %>% ungroup()

## # A tibble: 32 x 6
##    Class Sex    Age   Survived  Freq People      
##    <fct> <fct>  <fct> <fct>    <dbl> <fct>       
##  1 1st   Male   Child No           0 Male:Child  
##  2 2nd   Male   Child No           0 Male:Child  
##  3 3rd   Male   Child No          35 Male:Child  
##  4 Crew  Male   Child No           0 Male:Child  
##  5 1st   Female Child No           0 Female:Child
##  6 2nd   Female Child No           0 Female:Child
##  7 3rd   Female Child No          17 Female:Child
##  8 Crew  Female Child No           0 Female:Child
##  9 1st   Male   Adult No         118 Male:Adult  
## 10 2nd   Male   Adult No         154 Male:Adult  
## # … with 22 more rows
…
