fredr is very neat | Robert W. Walker
…
## The following objects are masked from 'package:base':
## 
##     intersect, setdiff, setequal, union

library(ggplot2)

A student wanted to find data on charge-offs. fredr has a search capability. Let’s see what we can find.

ChargeOff <- fredr_series_search_text(
  search_text = "real estate charge offs",
  order_by = "popularity",
  sort_order = "desc")
ChargeOff %>% select(title)

## # A tibble: 24 x 1
##    title                                                                        
##    <chr>                                                                        
##  1 Charge-Off Rate on Commercial Real Estate Loans (Excluding Farmland), Booked…
##  2 Charge-Off Rate on Loans Secured by Real Estate, All Commercial Banks        
##  3 Charge-Off Rate on Loans Secured by Real Estate, Top 100 Banks Ranked by Ass…
##  4 Net Charge-Offs on All Loans and Leases, Secured by Real Estate, Single Fami…
##  5 Charge-Off Rate on Commercial Real Estate Loans (Excluding Farmland), Booked…
##  6 Charge-Off Rate on Commercial Real Estate Loans (Excluding Farmland), Booked…
##  7 Charge-Off Rate on Commercial Real Estate Loans (Excluding Farmland), Booked…
##  8 Net Charge-Offs on All Loans and Leases, Secured by Real Estate, Single Fami…
##  9 Charge-Off Rate on Loans Secured by Real Estate, All Commercial Banks        
## 10 Net Charge-Offs on All Loans and Leases, Secured by Real Estate, All Commerc…
## # … with 14 more rows
…
